module robomotion

go 1.12

require (
	github.com/golang/protobuf v1.3.2
	github.com/nats-io/gnatsd v1.4.1
	github.com/nats-io/go-nats v1.7.2
	github.com/nats-io/nkeys v0.1.0 // indirect
	github.com/nats-io/nuid v1.0.1 // indirect
	github.com/sirupsen/logrus v1.4.2
)
